04Nov_Hexagon
…
# View result
print(species_summary)

Simple feature collection with 2803 features and 3 fields
Geometry type: GEOMETRY
Dimension:     XY
Bounding box:  xmin: 85728.96 ymin: 430872.5 xmax: 100735 ymax: 445208.6
Projected CRS: Amersfoort / RD New
# A tibble: 2,803 × 4
   hex_id unique_species_count predominant_species                      geometry
    <int>                <int> <chr>                            <MULTIPOINT [m]>
 1      2                    2 Acer                ((85816.61 434198.4), (85822…
 2      4                    3 Aesculus            ((85881.28 433692.9), (85882…
 3      5                    8 Prunus              ((85728.96 433937.3), (85729…
 4      6                    4 assortiment         ((85813.51 434230.9), (85820…
 5      8                   11 Aesculus            ((85825.29 433443.7), (85826…
 6      9                    8 Acer                ((85907.08 433740.2), (85907…
 7     10                   11 Sorbus              ((85844.6 434174.2), (85854.…
 8     11                    1 Fraxinus            ((85982.66 434406.1), (85984…
 9     13                    6 Quercus             ((85926.66 433285.4), (85928…
10     14                   10 Pyrus               ((85951.78 433644.6), (85964…
# ℹ 2,793 more rows
…
